<svg xmlns="http://www.w3.org/2000/svg" viewBox="0 0 186.7 61">
    <defs>
        <style>
            .cls-1{fill:none;stroke:#fff;stroke-miterlimit:10}.cls-2{fill:#f9f9f9}.cls-3,.cls-4{fill:#fff}.cls-3{font-size:19px;font-family:ProductSans-Regular,Product Sans}.cls-4{font-size:6px;font-family:ProductSans-Bold,Product Sans;font-weight:700}
        </style>
    </defs>
    <g id="google_play" transform="translate(-696.5 -497.5)">
        <path id="Path_26" d="M180.2 60.5H6.5a6.018 6.018 0 0 1-6-6v-48a6.018 6.018 0 0 1 6-6h173.7a6.018 6.018 0 0 1 6 6v48a6.018 6.018 0 0 1-6 6z" class="cls-1" data-name="Path 26" transform="translate(696.5 497.5)"/>
        <g id="google_play-2" data-name="google_play">
            <g id="JJGNBm.tif_1_" transform="translate(696.5 497.5)">
                <g id="Group_4" data-name="Group 4">
                    <path id="Path_51" d="M26.4 30.1V16.8a3.4 3.4 0 0 1 .1-1 1.344 1.344 0 0 1 .6-.7.375.375 0 0 1 .6 0l.3.3c4.7 4.8 9.5 9.5 14.2 14.3l.2.2c.3.3.3.4 0 .7-.6.7-1.3 1.3-1.9 1.9-4.1 4.2-8.2 8.3-12.4 12.5-.7.7-1 .7-1.5-.2a1.978 1.978 0 0 1-.2-1.1V30.1z" class="cls-2" data-name="Path 51"/>
                    <path id="Path_52" d="M49.3 24.6c-1.6 1.6-3.1 3.2-4.7 4.8-5-5-10-10.1-15-15.1a1.045 1.045 0 0 1 1.1.2c3.4 1.8 6.8 3.7 10.3 5.5 2.6 1.4 5.2 2.8 7.7 4.2a2.092 2.092 0 0 0 .6.4z" class="cls-2" data-name="Path 52"/>
                    <path id="Path_53" d="M44 31.6l4.7 4.7a2.186 2.186 0 0 0-.5.3c-6.1 3.3-12.2 6.6-18.3 10-.3.1-.5.3-.9.2 5-5.1 10-10.1 15-15.2z" class="cls-2" data-name="Path 53"/>
                    <path id="Path_54" d="M50.8 34.9c-1.5-1.6-3-3.2-4.6-4.8a1.238 1.238 0 0 0 .2-.3c1.3-1.3 2.6-2.7 4-4 .5-.5.5-.5 1.1-.1 1.9 1 3.9 2.1 5.8 3.2.2.1.5.3.7.4a.9.9 0 0 1 .1 1.4 1.555 1.555 0 0 1-.8.6c-2.2 1.2-4.3 2.4-6.5 3.6z" class="cls-2" data-name="Path 54"/>
                </g>
            </g>
            <text id="Google_play-3" class="cls-3" data-name="Google play" transform="translate(856 536)">
                <tspan x="-98.914" y="0">Google play</tspan>
            </text>
            <text id="ANDROID_APP_ON" class="cls-4" data-name="ANDROID APP ON" transform="translate(759 518)">
                <tspan x="0" y="0">ANDROID APP ON</tspan>
            </text>
        </g>
    </g>
</svg>
